%YAML 1.1
%TAG !u! tag:unity3d.com,2011:
--- !u!78 &1
TagManager:
  serializedVersion: 2
  tags:
  - Collectable
  - Enemy
  - DeathArea
  - Powerup
  - Chest
  - StrengthPowerup
  - Music
  - Ground
  - Lever
  layers:
  - Default
  - TransparentFX
  - Ignore Raycast
  - 
  - Water
  - UI
  - 
  - 
  - Ground
  - DeathAreas
  - Collectible
  - Chests
  - 
  - 
  - 
  - 
  - 
  - 
  - 
  - 
  - 
  - 
  - 
  - 
  - 
  - 
  - 
  - 
  - 
  - 
  - 
  - 
  m_SortingLayers:
  - name: Default
    uniqueID: 0
    locked: 0
  - name: Background
    uniqueID: 3019997151
    locked: 0
  - name: Transparent Items
    uniqueID: 757255517
    locked: 0
  - name: Entity
    uniqueID: 440153883
    locked: 0
  - name: Forground
    uniqueID: 200686169
    locked: 0
  - name: Death Areas
    uniqueID: 1937561107
    locked: 0
